image_path,xmin,ymin,xmax,ymax,label
707900_516700_500_2.tiff,0,470,42,499,Tree
707900_516700_500_2.tiff,40,478,100,499,Tree
707900_516700_500_2.tiff,0,399,8,425,Tree
707900_516700_500_2.tiff,0,295,74,419,Tree
707900_516700_500_2.tiff,0,284,30,345,Tree
707900_516700_500_2.tiff,66,342,115,393,Tree
707900_516700_500_2.tiff,0,204,97,285,Tree
707900_516700_500_2.tiff,53,247,163,344,Tree
707900_516700_500_2.tiff,0,58,43,140,Tree
707900_516700_500_2.tiff,0,125,82,199,Tree
707900_516700_500_2.tiff,0,0,37,62,Tree
707900_516700_500_2.tiff,16,0,107,43,Tree
707900_516700_500_2.tiff,34,78,140,157,Tree
707900_516700_500_2.tiff,71,10,119,71,Tree
707900_516700_500_2.tiff,29,37,85,89,Tree
707900_516700_500_2.tiff,166,482,241,499,Tree
707900_516700_500_2.tiff,151,445,201,494,Tree
707900_516700_500_2.tiff,27,426,95,483,Tree
707900_516700_500_2.tiff,88,465,111,494,Tree
707900_516700_500_2.tiff,100,488,120,499,Tree
707900_516700_500_2.tiff,113,311,165,406,Tree
707900_516700_500_2.tiff,129,391,160,422,Tree
707900_516700_500_2.tiff,157,341,204,413,Tree
707900_516700_500_2.tiff,149,210,198,275,Tree
707900_516700_500_2.tiff,201,239,258,299,Tree
707900_516700_500_2.tiff,248,202,360,315,Tree
707900_516700_500_2.tiff,244,164,309,231,Tree
707900_516700_500_2.tiff,186,179,239,233,Tree
707900_516700_500_2.tiff,73,122,202,201,Tree
707900_516700_500_2.tiff,122,79,191,141,Tree
707900_516700_500_2.tiff,97,25,183,97,Tree
707900_516700_500_2.tiff,118,0,168,26,Tree
707900_516700_500_2.tiff,283,0,365,39,Tree
707900_516700_500_2.tiff,360,0,403,11,Tree
707900_516700_500_2.tiff,402,0,442,9,Tree
707900_516700_500_2.tiff,163,0,338,188,Tree
707900_516700_500_2.tiff,326,7,463,153,Tree
707900_516700_500_2.tiff,446,0,499,134,Tree
707900_516700_500_2.tiff,367,198,431,266,Tree
707900_516700_500_2.tiff,352,148,459,220,Tree
707900_516700_500_2.tiff,485,143,499,211,Tree
707900_516700_500_2.tiff,154,286,251,362,Tree
707900_516700_500_2.tiff,244,303,332,392,Tree
707900_516700_500_2.tiff,303,376,349,428,Tree
707900_516700_500_2.tiff,346,265,470,363,Tree
707900_516700_500_2.tiff,423,233,499,344,Tree
707900_516700_500_2.tiff,495,310,499,342,Tree
707900_516700_500_2.tiff,493,357,499,384,Tree
707900_516700_500_2.tiff,482,387,499,405,Tree
707900_516700_500_2.tiff,474,406,499,425,Tree
707900_516700_500_2.tiff,405,360,492,407,Tree
707900_516700_500_2.tiff,428,444,499,499,Tree
707900_516700_500_2.tiff,433,401,472,436,Tree
707900_516700_500_2.tiff,317,305,391,368,Tree
707900_516700_500_2.tiff,323,352,403,417,Tree
707900_516700_500_2.tiff,388,401,468,494,Tree
707900_516700_500_2.tiff,344,409,398,458,Tree
707900_516700_500_2.tiff,386,448,422,479,Tree
707900_516700_500_2.tiff,393,479,427,499,Tree
707900_516700_500_2.tiff,215,400,308,477,Tree
707900_516700_500_2.tiff,191,360,263,429,Tree
707900_516700_500_2.tiff,344,472,389,499,Tree
707900_516700_500_2.tiff,250,474,311,499,Tree
707900_516700_500_2.tiff,315,487,342,499,Tree
707900_516700_500_2.tiff,280,426,358,488,Tree
