image_path,xmin,ymin,xmax,ymax,label
708000_516900_500_1.tiff,10,450,95,499,Tree
708000_516900_500_1.tiff,0,367,27,482,Tree
708000_516900_500_1.tiff,14,390,82,478,Tree
708000_516900_500_1.tiff,0,302,42,368,Tree
708000_516900_500_1.tiff,0,279,11,305,Tree
708000_516900_500_1.tiff,0,221,27,270,Tree
708000_516900_500_1.tiff,9,151,78,223,Tree
708000_516900_500_1.tiff,41,188,141,289,Tree
708000_516900_500_1.tiff,67,289,187,374,Tree
708000_516900_500_1.tiff,16,262,116,346,Tree
708000_516900_500_1.tiff,140,238,214,310,Tree
708000_516900_500_1.tiff,192,299,235,349,Tree
708000_516900_500_1.tiff,134,359,210,455,Tree
708000_516900_500_1.tiff,85,411,140,471,Tree
708000_516900_500_1.tiff,71,362,155,412,Tree
708000_516900_500_1.tiff,190,351,262,440,Tree
708000_516900_500_1.tiff,200,437,253,477,Tree
708000_516900_500_1.tiff,9,69,151,180,Tree
708000_516900_500_1.tiff,110,116,184,234,Tree
708000_516900_500_1.tiff,199,224,261,272,Tree
708000_516900_500_1.tiff,184,132,245,223,Tree
708000_516900_500_1.tiff,318,170,380,227,Tree
708000_516900_500_1.tiff,227,141,331,209,Tree
708000_516900_500_1.tiff,219,38,347,143,Tree
708000_516900_500_1.tiff,0,78,33,135,Tree
708000_516900_500_1.tiff,0,21,65,86,Tree
708000_516900_500_1.tiff,47,12,113,67,Tree
708000_516900_500_1.tiff,0,0,26,2,Tree
708000_516900_500_1.tiff,29,0,81,28,Tree
708000_516900_500_1.tiff,101,0,182,52,Tree
708000_516900_500_1.tiff,202,0,269,26,Tree
708000_516900_500_1.tiff,164,0,247,79,Tree
708000_516900_500_1.tiff,96,453,215,499,Tree
708000_516900_500_1.tiff,229,468,299,499,Tree
708000_516900_500_1.tiff,298,474,354,499,Tree
708000_516900_500_1.tiff,363,467,434,499,Tree
708000_516900_500_1.tiff,280,383,381,469,Tree
708000_516900_500_1.tiff,254,425,324,474,Tree
708000_516900_500_1.tiff,234,261,358,395,Tree
708000_516900_500_1.tiff,254,210,301,263,Tree
708000_516900_500_1.tiff,318,234,392,300,Tree
708000_516900_500_1.tiff,350,293,426,360,Tree
708000_516900_500_1.tiff,367,345,440,397,Tree
708000_516900_500_1.tiff,388,219,496,307,Tree
708000_516900_500_1.tiff,424,199,453,237,Tree
708000_516900_500_1.tiff,360,123,495,213,Tree
708000_516900_500_1.tiff,325,110,366,172,Tree
708000_516900_500_1.tiff,373,60,495,151,Tree
708000_516900_500_1.tiff,335,7,386,63,Tree
708000_516900_500_1.tiff,269,0,298,2,Tree
708000_516900_500_1.tiff,295,0,339,50,Tree
708000_516900_500_1.tiff,387,3,433,57,Tree
708000_516900_500_1.tiff,434,17,499,88,Tree
708000_516900_500_1.tiff,445,0,497,27,Tree
708000_516900_500_1.tiff,395,0,437,17,Tree
708000_516900_500_1.tiff,481,117,499,171,Tree
708000_516900_500_1.tiff,435,281,499,373,Tree
708000_516900_500_1.tiff,418,355,499,499,Tree
