image_path,xmin,ymin,xmax,ymax,label
708000_516100_500_3.tiff,15,0,100,40,Tree
708000_516100_500_3.tiff,94,0,178,11,Tree
708000_516100_500_3.tiff,0,47,17,80,Tree
708000_516100_500_3.tiff,0,54,28,109,Tree
708000_516100_500_3.tiff,24,52,36,64,Tree
708000_516100_500_3.tiff,31,62,48,87,Tree
708000_516100_500_3.tiff,30,90,71,118,Tree
708000_516100_500_3.tiff,0,0,22,45,Tree
708000_516100_500_3.tiff,58,40,127,103,Tree
708000_516100_500_3.tiff,50,25,81,58,Tree
708000_516100_500_3.tiff,79,23,96,43,Tree
708000_516100_500_3.tiff,16,119,71,176,Tree
708000_516100_500_3.tiff,38,161,132,245,Tree
708000_516100_500_3.tiff,13,203,68,261,Tree
708000_516100_500_3.tiff,0,241,22,270,Tree
708000_516100_500_3.tiff,7,219,26,247,Tree
708000_516100_500_3.tiff,0,271,44,347,Tree
708000_516100_500_3.tiff,46,331,60,351,Tree
708000_516100_500_3.tiff,0,340,36,389,Tree
708000_516100_500_3.tiff,24,363,76,431,Tree
708000_516100_500_3.tiff,0,438,39,466,Tree
708000_516100_500_3.tiff,0,478,48,499,Tree
708000_516100_500_3.tiff,147,471,191,499,Tree
708000_516100_500_3.tiff,125,445,191,488,Tree
708000_516100_500_3.tiff,189,475,210,495,Tree
708000_516100_500_3.tiff,210,490,226,499,Tree
708000_516100_500_3.tiff,261,473,307,499,Tree
708000_516100_500_3.tiff,309,473,348,499,Tree
708000_516100_500_3.tiff,251,452,289,488,Tree
708000_516100_500_3.tiff,223,435,284,475,Tree
708000_516100_500_3.tiff,217,407,267,440,Tree
708000_516100_500_3.tiff,203,447,223,463,Tree
708000_516100_500_3.tiff,353,482,375,499,Tree
708000_516100_500_3.tiff,380,455,429,499,Tree
708000_516100_500_3.tiff,353,415,437,474,Tree
708000_516100_500_3.tiff,70,434,117,477,Tree
708000_516100_500_3.tiff,115,417,157,456,Tree
708000_516100_500_3.tiff,113,456,157,498,Tree
708000_516100_500_3.tiff,262,415,303,441,Tree
708000_516100_500_3.tiff,298,431,346,478,Tree
708000_516100_500_3.tiff,273,435,316,489,Tree
708000_516100_500_3.tiff,214,472,240,486,Tree
708000_516100_500_3.tiff,379,498,387,499,Tree
708000_516100_500_3.tiff,428,460,499,499,Tree
708000_516100_500_3.tiff,472,405,499,464,Tree
708000_516100_500_3.tiff,52,258,181,369,Tree
708000_516100_500_3.tiff,156,337,223,392,Tree
708000_516100_500_3.tiff,220,340,274,390,Tree
708000_516100_500_3.tiff,183,382,246,427,Tree
708000_516100_500_3.tiff,75,477,144,499,Tree
708000_516100_500_3.tiff,28,420,85,473,Tree
708000_516100_500_3.tiff,241,375,295,418,Tree
708000_516100_500_3.tiff,267,298,358,384,Tree
708000_516100_500_3.tiff,105,1,181,53,Tree
708000_516100_500_3.tiff,96,35,119,61,Tree
708000_516100_500_3.tiff,117,45,148,82,Tree
708000_516100_500_3.tiff,104,81,175,139,Tree
708000_516100_500_3.tiff,67,113,109,166,Tree
708000_516100_500_3.tiff,117,129,191,182,Tree
708000_516100_500_3.tiff,148,74,187,121,Tree
708000_516100_500_3.tiff,192,0,290,85,Tree
708000_516100_500_3.tiff,179,53,228,99,Tree
708000_516100_500_3.tiff,218,59,248,92,Tree
708000_516100_500_3.tiff,192,96,217,116,Tree
708000_516100_500_3.tiff,218,90,267,122,Tree
708000_516100_500_3.tiff,136,171,197,229,Tree
708000_516100_500_3.tiff,102,222,174,285,Tree
708000_516100_500_3.tiff,23,266,51,309,Tree
708000_516100_500_3.tiff,183,124,295,233,Tree
708000_516100_500_3.tiff,277,113,359,180,Tree
708000_516100_500_3.tiff,270,193,379,282,Tree
708000_516100_500_3.tiff,180,216,262,296,Tree
708000_516100_500_3.tiff,283,176,328,211,Tree
708000_516100_500_3.tiff,258,213,286,235,Tree
708000_516100_500_3.tiff,245,235,330,292,Tree
708000_516100_500_3.tiff,190,290,283,349,Tree
708000_516100_500_3.tiff,348,270,383,304,Tree
708000_516100_500_3.tiff,352,355,416,405,Tree
708000_516100_500_3.tiff,410,318,490,437,Tree
708000_516100_500_3.tiff,451,420,490,460,Tree
708000_516100_500_3.tiff,475,326,499,397,Tree
708000_516100_500_3.tiff,274,0,327,16,Tree
708000_516100_500_3.tiff,266,41,329,113,Tree
708000_516100_500_3.tiff,300,0,435,75,Tree
708000_516100_500_3.tiff,374,69,440,137,Tree
708000_516100_500_3.tiff,327,70,385,134,Tree
708000_516100_500_3.tiff,386,108,462,154,Tree
708000_516100_500_3.tiff,436,30,499,130,Tree
708000_516100_500_3.tiff,409,0,461,42,Tree
708000_516100_500_3.tiff,455,0,499,24,Tree
708000_516100_500_3.tiff,357,162,488,269,Tree
708000_516100_500_3.tiff,334,151,394,192,Tree
708000_516100_500_3.tiff,488,266,499,331,Tree
708000_516100_500_3.tiff,490,199,499,243,Tree
708000_516100_500_3.tiff,439,253,490,317,Tree
708000_516100_500_3.tiff,397,267,443,305,Tree
