image_path,xmin,ymin,xmax,ymax,label
708000_516900_500_3.tiff,421,444,499,499,Tree
708000_516900_500_3.tiff,205,477,263,499,Tree
708000_516900_500_3.tiff,274,490,351,499,Tree
708000_516900_500_3.tiff,281,406,354,472,Tree
708000_516900_500_3.tiff,161,449,208,493,Tree
708000_516900_500_3.tiff,304,344,367,394,Tree
708000_516900_500_3.tiff,302,285,364,341,Tree
708000_516900_500_3.tiff,370,315,412,345,Tree
708000_516900_500_3.tiff,187,363,276,442,Tree
708000_516900_500_3.tiff,230,308,306,398,Tree
708000_516900_500_3.tiff,134,486,153,499,Tree
708000_516900_500_3.tiff,95,451,149,499,Tree
708000_516900_500_3.tiff,37,456,100,499,Tree
708000_516900_500_3.tiff,0,492,43,499,Tree
708000_516900_500_3.tiff,0,435,46,487,Tree
708000_516900_500_3.tiff,36,403,100,453,Tree
708000_516900_500_3.tiff,84,384,196,456,Tree
708000_516900_500_3.tiff,0,391,26,433,Tree
708000_516900_500_3.tiff,0,287,43,396,Tree
708000_516900_500_3.tiff,39,331,95,411,Tree
708000_516900_500_3.tiff,97,328,150,380,Tree
708000_516900_500_3.tiff,140,293,219,373,Tree
708000_516900_500_3.tiff,1,248,94,327,Tree
708000_516900_500_3.tiff,95,236,140,302,Tree
708000_516900_500_3.tiff,0,165,85,250,Tree
708000_516900_500_3.tiff,0,117,25,154,Tree
708000_516900_500_3.tiff,11,88,87,149,Tree
708000_516900_500_3.tiff,70,142,129,203,Tree
708000_516900_500_3.tiff,134,140,201,213,Tree
708000_516900_500_3.tiff,141,203,240,283,Tree
708000_516900_500_3.tiff,54,162,99,220,Tree
708000_516900_500_3.tiff,0,31,17,75,Tree
708000_516900_500_3.tiff,60,47,113,113,Tree
708000_516900_500_3.tiff,23,28,71,82,Tree
708000_516900_500_3.tiff,119,44,166,114,Tree
708000_516900_500_3.tiff,0,0,25,34,Tree
708000_516900_500_3.tiff,81,0,130,25,Tree
708000_516900_500_3.tiff,150,0,162,2,Tree
708000_516900_500_3.tiff,204,0,248,6,Tree
708000_516900_500_3.tiff,130,5,223,121,Tree
708000_516900_500_3.tiff,218,6,303,122,Tree
708000_516900_500_3.tiff,271,0,332,28,Tree
708000_516900_500_3.tiff,356,0,370,4,Tree
708000_516900_500_3.tiff,482,4,499,71,Tree
708000_516900_500_3.tiff,412,171,499,295,Tree
708000_516900_500_3.tiff,394,245,449,303,Tree
708000_516900_500_3.tiff,331,199,432,289,Tree
708000_516900_500_3.tiff,237,238,334,312,Tree
708000_516900_500_3.tiff,243,170,332,233,Tree
708000_516900_500_3.tiff,323,135,390,193,Tree
708000_516900_500_3.tiff,307,59,408,135,Tree
708000_516900_500_3.tiff,202,132,269,194,Tree
708000_516900_500_3.tiff,397,78,499,170,Tree
708000_516900_500_3.tiff,389,0,482,94,Tree
708000_516900_500_3.tiff,313,0,386,62,Tree
708000_516900_500_3.tiff,344,400,397,454,Tree
708000_516900_500_3.tiff,401,430,468,471,Tree
708000_516900_500_3.tiff,465,409,499,454,Tree
708000_516900_500_3.tiff,350,353,392,412,Tree
708000_516900_500_3.tiff,420,309,499,366,Tree
708000_516900_500_3.tiff,387,341,499,439,Tree
