image_path,xmin,ymin,xmax,ymax,label
708200_515200_500_1.tiff,436,0,499,76,Tree
708200_515200_500_1.tiff,409,109,499,209,Tree
708200_515200_500_1.tiff,370,185,499,301,Tree
708200_515200_500_1.tiff,487,209,499,236,Tree
708200_515200_500_1.tiff,322,57,410,145,Tree
708200_515200_500_1.tiff,0,451,40,499,Tree
708200_515200_500_1.tiff,312,482,378,499,Tree
708200_515200_500_1.tiff,424,398,499,499,Tree
708200_515200_500_1.tiff,471,290,499,347,Tree
708200_515200_500_1.tiff,366,432,441,499,Tree
708200_515200_500_1.tiff,335,366,406,455,Tree
708200_515200_500_1.tiff,262,400,329,470,Tree
708200_515200_500_1.tiff,242,469,316,499,Tree
708200_515200_500_1.tiff,152,471,237,499,Tree
708200_515200_500_1.tiff,40,461,155,499,Tree
708200_515200_500_1.tiff,18,490,46,499,Tree
708200_515200_500_1.tiff,262,309,372,407,Tree
708200_515200_500_1.tiff,187,309,255,389,Tree
708200_515200_500_1.tiff,211,391,269,449,Tree
708200_515200_500_1.tiff,187,438,238,473,Tree
708200_515200_500_1.tiff,162,361,216,453,Tree
708200_515200_500_1.tiff,70,371,167,473,Tree
708200_515200_500_1.tiff,45,348,93,397,Tree
708200_515200_500_1.tiff,124,322,178,375,Tree
708200_515200_500_1.tiff,0,331,20,398,Tree
708200_515200_500_1.tiff,0,369,57,448,Tree
708200_515200_500_1.tiff,0,285,58,346,Tree
708200_515200_500_1.tiff,266,212,359,262,Tree
708200_515200_500_1.tiff,250,144,358,206,Tree
708200_515200_500_1.tiff,223,173,278,236,Tree
708200_515200_500_1.tiff,162,169,200,207,Tree
708200_515200_500_1.tiff,109,177,165,232,Tree
708200_515200_500_1.tiff,35,194,112,258,Tree
708200_515200_500_1.tiff,0,234,41,276,Tree
708200_515200_500_1.tiff,0,163,61,223,Tree
708200_515200_500_1.tiff,55,259,135,337,Tree
708200_515200_500_1.tiff,117,230,194,304,Tree
708200_515200_500_1.tiff,181,205,276,324,Tree
708200_515200_500_1.tiff,318,255,382,314,Tree
708200_515200_500_1.tiff,370,301,460,367,Tree
708200_515200_500_1.tiff,242,0,336,64,Tree
708200_515200_500_1.tiff,370,0,442,56,Tree
708200_515200_500_1.tiff,164,39,257,112,Tree
708200_515200_500_1.tiff,121,0,232,42,Tree
708200_515200_500_1.tiff,142,110,226,186,Tree
708200_515200_500_1.tiff,0,77,44,128,Tree
708200_515200_500_1.tiff,0,27,60,95,Tree
708200_515200_500_1.tiff,49,3,99,45,Tree
708200_515200_500_1.tiff,0,0,45,43,Tree
708200_515200_500_1.tiff,76,26,157,101,Tree
708200_515200_500_1.tiff,49,102,161,180,Tree
