image_path,xmin,ymin,xmax,ymax,label
708400_519200_500_4.tiff,266,389,359,480,Tree
708400_519200_500_4.tiff,145,350,251,420,Tree
708400_519200_500_4.tiff,41,442,173,499,Tree
708400_519200_500_4.tiff,160,401,277,499,Tree
708400_519200_500_4.tiff,15,282,144,423,Tree
