image_path,xmin,ymin,xmax,ymax,label
708400_516500_500_4.tiff,0,21,12,42,Tree
708400_516500_500_4.tiff,0,0,63,27,Tree
708400_516500_500_4.tiff,14,31,62,69,Tree
708400_516500_500_4.tiff,67,0,126,23,Tree
708400_516500_500_4.tiff,105,14,165,72,Tree
708400_516500_500_4.tiff,174,0,267,88,Tree
708400_516500_500_4.tiff,248,0,306,58,Tree
708400_516500_500_4.tiff,314,24,361,91,Tree
708400_516500_500_4.tiff,257,57,342,147,Tree
708400_516500_500_4.tiff,356,0,455,52,Tree
708400_516500_500_4.tiff,459,0,499,63,Tree
708400_516500_500_4.tiff,0,195,80,317,Tree
708400_516500_500_4.tiff,0,71,184,213,Tree
708400_516500_500_4.tiff,0,327,19,444,Tree
708400_516500_500_4.tiff,17,329,140,494,Tree
708400_516500_500_4.tiff,83,248,177,360,Tree
708400_516500_500_4.tiff,27,197,114,258,Tree
708400_516500_500_4.tiff,138,196,284,308,Tree
708400_516500_500_4.tiff,192,90,265,199,Tree
708400_516500_500_4.tiff,259,135,337,242,Tree
708400_516500_500_4.tiff,333,175,387,242,Tree
708400_516500_500_4.tiff,358,62,460,195,Tree
708400_516500_500_4.tiff,469,76,499,202,Tree
708400_516500_500_4.tiff,452,174,486,208,Tree
708400_516500_500_4.tiff,185,168,222,199,Tree
708400_516500_500_4.tiff,0,93,26,179,Tree
708400_516500_500_4.tiff,0,437,24,486,Tree
708400_516500_500_4.tiff,85,443,177,499,Tree
708400_516500_500_4.tiff,142,312,200,384,Tree
708400_516500_500_4.tiff,132,374,227,440,Tree
708400_516500_500_4.tiff,209,301,308,375,Tree
708400_516500_500_4.tiff,221,353,410,499,Tree
708400_516500_500_4.tiff,224,427,270,499,Tree
708400_516500_500_4.tiff,162,432,223,499,Tree
708400_516500_500_4.tiff,2,492,76,499,Tree
708400_516500_500_4.tiff,289,231,383,295,Tree
708400_516500_500_4.tiff,298,279,376,380,Tree
708400_516500_500_4.tiff,365,349,410,382,Tree
708400_516500_500_4.tiff,379,263,481,397,Tree
708400_516500_500_4.tiff,384,196,480,275,Tree
708400_516500_500_4.tiff,454,223,499,311,Tree
708400_516500_500_4.tiff,468,343,499,387,Tree
708400_516500_500_4.tiff,494,384,499,404,Tree
708400_516500_500_4.tiff,388,400,499,499,Tree
708400_516500_500_4.tiff,461,370,489,417,Tree
708400_516500_500_4.tiff,487,410,499,433,Tree
