image_path,xmin,ymin,xmax,ymax,label
708600_518600_500_1.tiff,457,0,499,51,Tree
708600_518600_500_1.tiff,487,75,499,136,Tree
708600_518600_500_1.tiff,340,0,496,119,Tree
708600_518600_500_1.tiff,358,116,499,266,Tree
708600_518600_500_1.tiff,395,262,499,377,Tree
708600_518600_500_1.tiff,442,370,499,482,Tree
708600_518600_500_1.tiff,418,453,499,499,Tree
708600_518600_500_1.tiff,361,471,418,499,Tree
708600_518600_500_1.tiff,181,418,337,499,Tree
708600_518600_500_1.tiff,59,361,211,499,Tree
708600_518600_500_1.tiff,185,289,261,350,Tree
708600_518600_500_1.tiff,162,341,281,432,Tree
708600_518600_500_1.tiff,345,405,422,471,Tree
708600_518600_500_1.tiff,349,338,420,409,Tree
708600_518600_500_1.tiff,263,299,377,396,Tree
708600_518600_500_1.tiff,240,152,405,309,Tree
708600_518600_500_1.tiff,107,268,201,354,Tree
708600_518600_500_1.tiff,0,243,114,378,Tree
708600_518600_500_1.tiff,0,394,89,499,Tree
708600_518600_500_1.tiff,0,118,25,208,Tree
708600_518600_500_1.tiff,118,148,246,279,Tree
708600_518600_500_1.tiff,166,62,313,197,Tree
708600_518600_500_1.tiff,34,74,174,268,Tree
708600_518600_500_1.tiff,126,0,235,71,Tree
708600_518600_500_1.tiff,208,0,343,92,Tree
708600_518600_500_1.tiff,0,3,99,128,Tree
708600_518600_500_1.tiff,36,0,104,41,Tree
708600_518600_500_1.tiff,0,0,36,4,Tree
