image_path,xmin,ymin,xmax,ymax,label
708700_518000_500_1.tiff,59,0,185,59,Tree
708700_518000_500_1.tiff,0,0,10,35,Tree
708700_518000_500_1.tiff,0,10,155,183,Tree
708700_518000_500_1.tiff,113,94,159,158,Tree
708700_518000_500_1.tiff,159,15,261,136,Tree
708700_518000_500_1.tiff,0,166,69,259,Tree
708700_518000_500_1.tiff,78,207,136,251,Tree
708700_518000_500_1.tiff,0,244,98,375,Tree
708700_518000_500_1.tiff,112,146,237,239,Tree
708700_518000_500_1.tiff,210,125,273,195,Tree
708700_518000_500_1.tiff,153,108,196,160,Tree
708700_518000_500_1.tiff,262,138,353,220,Tree
708700_518000_500_1.tiff,271,15,439,207,Tree
708700_518000_500_1.tiff,460,0,499,124,Tree
708700_518000_500_1.tiff,389,0,478,110,Tree
708700_518000_500_1.tiff,170,225,272,288,Tree
708700_518000_500_1.tiff,346,205,448,309,Tree
708700_518000_500_1.tiff,423,175,495,238,Tree
708700_518000_500_1.tiff,439,235,499,312,Tree
708700_518000_500_1.tiff,261,266,392,339,Tree
708700_518000_500_1.tiff,205,291,272,411,Tree
708700_518000_500_1.tiff,137,314,211,437,Tree
708700_518000_500_1.tiff,272,327,380,470,Tree
708700_518000_500_1.tiff,215,435,383,499,Tree
708700_518000_500_1.tiff,154,462,221,499,Tree
708700_518000_500_1.tiff,70,392,174,499,Tree
708700_518000_500_1.tiff,0,368,47,430,Tree
708700_518000_500_1.tiff,0,423,39,472,Tree
708700_518000_500_1.tiff,33,413,86,499,Tree
708700_518000_500_1.tiff,14,489,110,499,Tree
708700_518000_500_1.tiff,373,308,499,499,Tree
