image_path,xmin,ymin,xmax,ymax,label
709000_519100_500_3.tiff,0,322,137,476,Tree
709000_519100_500_3.tiff,472,263,499,373,Tree
709000_519100_500_3.tiff,441,491,497,499,Tree
709000_519100_500_3.tiff,465,374,499,441,Tree
709000_519100_500_3.tiff,467,441,499,499,Tree
709000_519100_500_3.tiff,406,454,460,499,Tree
709000_519100_500_3.tiff,413,362,466,416,Tree
709000_519100_500_3.tiff,426,414,478,462,Tree
709000_519100_500_3.tiff,0,447,64,499,Tree
709000_519100_500_3.tiff,64,426,198,499,Tree
709000_519100_500_3.tiff,111,245,413,499,Tree
709000_519100_500_3.tiff,406,211,499,367,Tree
709000_519100_500_3.tiff,479,157,499,220,Tree
709000_519100_500_3.tiff,0,114,99,264,Tree
709000_519100_500_3.tiff,14,141,246,305,Tree
709000_519100_500_3.tiff,197,56,382,270,Tree
709000_519100_500_3.tiff,473,11,499,112,Tree
709000_519100_500_3.tiff,355,0,498,141,Tree
709000_519100_500_3.tiff,215,0,361,71,Tree
709000_519100_500_3.tiff,103,0,229,63,Tree
709000_519100_500_3.tiff,38,0,89,12,Tree
