image_path,xmin,ymin,xmax,ymax,label
709200_519000_500_1.tiff,85,285,240,480,Tree
709200_519000_500_1.tiff,0,292,71,405,Tree
709200_519000_500_1.tiff,130,0,288,172,Tree
709200_519000_500_1.tiff,24,0,187,198,Tree
709200_519000_500_1.tiff,59,181,188,298,Tree
709200_519000_500_1.tiff,152,221,266,317,Tree
709200_519000_500_1.tiff,172,156,286,235,Tree
709200_519000_500_1.tiff,13,408,102,499,Tree
709200_519000_500_1.tiff,77,459,161,499,Tree
709200_519000_500_1.tiff,0,422,15,499,Tree
709200_519000_500_1.tiff,390,420,487,499,Tree
709200_519000_500_1.tiff,258,401,395,499,Tree
709200_519000_500_1.tiff,197,421,267,489,Tree
709200_519000_500_1.tiff,235,283,310,439,Tree
709200_519000_500_1.tiff,312,344,411,422,Tree
709200_519000_500_1.tiff,0,245,26,315,Tree
709200_519000_500_1.tiff,0,327,3,353,Tree
709200_519000_500_1.tiff,0,176,69,287,Tree
709200_519000_500_1.tiff,6,0,84,21,Tree
