image_path,xmin,ymin,xmax,ymax,label
709300_518800_500_4.tiff,0,339,25,456,Tree
709300_518800_500_4.tiff,77,394,188,496,Tree
709300_518800_500_4.tiff,35,461,168,499,Tree
709300_518800_500_4.tiff,3,415,80,491,Tree
709300_518800_500_4.tiff,0,466,28,499,Tree
709300_518800_500_4.tiff,169,289,324,417,Tree
709300_518800_500_4.tiff,0,191,107,350,Tree
709300_518800_500_4.tiff,304,461,499,499,Tree
