image_path,xmin,ymin,xmax,ymax,label
710300_518100_500_1.tiff,5,0,109,47,Tree
710300_518100_500_1.tiff,70,54,170,138,Tree
710300_518100_500_1.tiff,48,123,119,199,Tree
710300_518100_500_1.tiff,123,115,213,236,Tree
710300_518100_500_1.tiff,172,223,279,341,Tree
710300_518100_500_1.tiff,51,223,174,356,Tree
710300_518100_500_1.tiff,21,175,110,309,Tree
710300_518100_500_1.tiff,0,196,41,269,Tree
710300_518100_500_1.tiff,0,142,59,213,Tree
710300_518100_500_1.tiff,0,42,31,105,Tree
710300_518100_500_1.tiff,0,88,53,164,Tree
710300_518100_500_1.tiff,0,0,13,39,Tree
