image_path,xmin,ymin,xmax,ymax,label
710500_518200_500_1.tiff,385,0,499,45,Tree
710500_518200_500_1.tiff,467,45,499,116,Tree
710500_518200_500_1.tiff,416,172,499,319,Tree
710500_518200_500_1.tiff,294,0,428,113,Tree
710500_518200_500_1.tiff,19,0,173,62,Tree
710500_518200_500_1.tiff,11,30,111,142,Tree
710500_518200_500_1.tiff,107,62,213,126,Tree
710500_518200_500_1.tiff,128,122,208,195,Tree
710500_518200_500_1.tiff,137,187,203,234,Tree
710500_518200_500_1.tiff,12,140,152,271,Tree
710500_518200_500_1.tiff,286,84,367,169,Tree
710500_518200_500_1.tiff,227,62,296,170,Tree
710500_518200_500_1.tiff,199,160,289,278,Tree
710500_518200_500_1.tiff,0,276,62,381,Tree
710500_518200_500_1.tiff,0,357,39,448,Tree
710500_518200_500_1.tiff,13,402,102,493,Tree
710500_518200_500_1.tiff,102,394,153,437,Tree
710500_518200_500_1.tiff,100,360,145,402,Tree
710500_518200_500_1.tiff,49,253,154,369,Tree
710500_518200_500_1.tiff,129,251,199,310,Tree
710500_518200_500_1.tiff,143,330,233,417,Tree
710500_518200_500_1.tiff,230,260,324,343,Tree
710500_518200_500_1.tiff,259,278,369,435,Tree
710500_518200_500_1.tiff,184,389,294,499,Tree
710500_518200_500_1.tiff,137,428,191,493,Tree
710500_518200_500_1.tiff,486,486,499,499,Tree
710500_518200_500_1.tiff,376,384,485,499,Tree
710500_518200_500_1.tiff,243,469,327,499,Tree
710500_518200_500_1.tiff,298,410,371,494,Tree
710500_518200_500_1.tiff,115,482,172,499,Tree
710500_518200_500_1.tiff,348,462,401,499,Tree
710500_518200_500_1.tiff,386,481,437,499,Tree
710500_518200_500_1.tiff,39,466,108,499,Tree
710500_518200_500_1.tiff,0,449,36,499,Tree
