image_path,xmin,ymin,xmax,ymax,label
710500_518100_500_3.tiff,223,0,265,10,Tree
710500_518100_500_3.tiff,181,0,226,15,Tree
710500_518100_500_3.tiff,95,0,173,34,Tree
710500_518100_500_3.tiff,118,5,225,78,Tree
710500_518100_500_3.tiff,176,72,234,127,Tree
710500_518100_500_3.tiff,132,103,209,174,Tree
710500_518100_500_3.tiff,103,60,175,127,Tree
710500_518100_500_3.tiff,205,116,255,176,Tree
710500_518100_500_3.tiff,182,166,242,221,Tree
710500_518100_500_3.tiff,265,34,327,91,Tree
710500_518100_500_3.tiff,306,0,362,41,Tree
710500_518100_500_3.tiff,371,0,445,4,Tree
710500_518100_500_3.tiff,497,0,499,5,Tree
710500_518100_500_3.tiff,437,0,494,36,Tree
710500_518100_500_3.tiff,421,29,499,141,Tree
710500_518100_500_3.tiff,334,1,428,79,Tree
710500_518100_500_3.tiff,309,52,413,140,Tree
710500_518100_500_3.tiff,251,92,383,218,Tree
710500_518100_500_3.tiff,404,98,499,189,Tree
710500_518100_500_3.tiff,368,156,462,249,Tree
710500_518100_500_3.tiff,449,177,499,248,Tree
710500_518100_500_3.tiff,365,244,499,417,Tree
710500_518100_500_3.tiff,374,407,479,499,Tree
710500_518100_500_3.tiff,173,442,262,499,Tree
710500_518100_500_3.tiff,298,496,316,499,Tree
710500_518100_500_3.tiff,107,315,211,431,Tree
710500_518100_500_3.tiff,86,253,161,343,Tree
710500_518100_500_3.tiff,166,391,231,428,Tree
710500_518100_500_3.tiff,211,196,323,332,Tree
710500_518100_500_3.tiff,244,292,363,419,Tree
710500_518100_500_3.tiff,262,400,352,476,Tree
710500_518100_500_3.tiff,329,415,389,495,Tree
710500_518100_500_3.tiff,477,447,499,499,Tree
