image_path,xmin,ymin,xmax,ymax,label
710600_518100_500_4.tiff,0,0,36,36,Tree
710600_518100_500_4.tiff,0,30,66,93,Tree
710600_518100_500_4.tiff,19,0,35,4,Tree
710600_518100_500_4.tiff,41,0,94,43,Tree
710600_518100_500_4.tiff,286,0,339,23,Tree
710600_518100_500_4.tiff,310,0,421,56,Tree
710600_518100_500_4.tiff,237,0,280,16,Tree
710600_518100_500_4.tiff,163,0,228,2,Tree
710600_518100_500_4.tiff,192,3,238,40,Tree
710600_518100_500_4.tiff,133,0,191,59,Tree
710600_518100_500_4.tiff,80,7,146,61,Tree
710600_518100_500_4.tiff,59,46,108,89,Tree
710600_518100_500_4.tiff,115,50,196,102,Tree
710600_518100_500_4.tiff,207,32,269,88,Tree
710600_518100_500_4.tiff,203,61,306,159,Tree
710600_518100_500_4.tiff,137,132,241,225,Tree
710600_518100_500_4.tiff,87,121,144,182,Tree
710600_518100_500_4.tiff,61,82,125,133,Tree
710600_518100_500_4.tiff,121,100,189,138,Tree
710600_518100_500_4.tiff,0,86,42,145,Tree
710600_518100_500_4.tiff,7,112,82,187,Tree
710600_518100_500_4.tiff,0,210,3,245,Tree
710600_518100_500_4.tiff,0,148,14,176,Tree
710600_518100_500_4.tiff,0,174,15,207,Tree
710600_518100_500_4.tiff,0,171,51,222,Tree
710600_518100_500_4.tiff,42,193,80,228,Tree
710600_518100_500_4.tiff,0,227,63,310,Tree
710600_518100_500_4.tiff,33,459,139,499,Tree
710600_518100_500_4.tiff,89,427,159,474,Tree
710600_518100_500_4.tiff,463,6,499,99,Tree
710600_518100_500_4.tiff,475,195,499,243,Tree
710600_518100_500_4.tiff,440,163,499,230,Tree
710600_518100_500_4.tiff,396,226,476,294,Tree
710600_518100_500_4.tiff,481,249,499,317,Tree
710600_518100_500_4.tiff,357,256,391,307,Tree
710600_518100_500_4.tiff,312,262,357,306,Tree
710600_518100_500_4.tiff,260,230,326,280,Tree
710600_518100_500_4.tiff,318,226,359,264,Tree
710600_518100_500_4.tiff,318,153,373,229,Tree
710600_518100_500_4.tiff,274,159,333,231,Tree
710600_518100_500_4.tiff,307,118,352,166,Tree
710600_518100_500_4.tiff,368,117,399,148,Tree
710600_518100_500_4.tiff,364,173,434,253,Tree
710600_518100_500_4.tiff,411,156,453,204,Tree
710600_518100_500_4.tiff,424,128,482,171,Tree
710600_518100_500_4.tiff,400,80,468,130,Tree
710600_518100_500_4.tiff,409,123,443,155,Tree
710600_518100_500_4.tiff,233,203,293,252,Tree
710600_518100_500_4.tiff,225,241,258,279,Tree
710600_518100_500_4.tiff,228,269,309,325,Tree
710600_518100_500_4.tiff,183,297,284,391,Tree
710600_518100_500_4.tiff,273,309,378,398,Tree
710600_518100_500_4.tiff,388,292,451,354,Tree
710600_518100_500_4.tiff,434,332,484,381,Tree
710600_518100_500_4.tiff,359,356,445,438,Tree
710600_518100_500_4.tiff,406,436,451,480,Tree
710600_518100_500_4.tiff,342,430,377,468,Tree
710600_518100_500_4.tiff,310,405,354,458,Tree
710600_518100_500_4.tiff,261,373,317,436,Tree
710600_518100_500_4.tiff,207,389,247,434,Tree
710600_518100_500_4.tiff,121,354,189,434,Tree
710600_518100_500_4.tiff,151,392,221,486,Tree
710600_518100_500_4.tiff,211,428,274,487,Tree
710600_518100_500_4.tiff,253,452,329,499,Tree
710600_518100_500_4.tiff,345,468,407,499,Tree
710600_518100_500_4.tiff,147,477,249,499,Tree
710600_518100_500_4.tiff,498,348,499,386,Tree
710600_518100_500_4.tiff,450,409,499,489,Tree
