image_path,xmin,ymin,xmax,ymax,label
710800_519000_500_4.tiff,0,18,5,56,Tree
710800_519000_500_4.tiff,60,83,98,115,Tree
710800_519000_500_4.tiff,18,29,72,86,Tree
710800_519000_500_4.tiff,0,0,46,19,Tree
710800_519000_500_4.tiff,43,7,78,35,Tree
710800_519000_500_4.tiff,89,18,164,98,Tree
710800_519000_500_4.tiff,137,44,194,100,Tree
710800_519000_500_4.tiff,4,88,68,183,Tree
710800_519000_500_4.tiff,73,120,126,184,Tree
710800_519000_500_4.tiff,129,100,204,186,Tree
710800_519000_500_4.tiff,192,38,290,114,Tree
710800_519000_500_4.tiff,79,0,143,23,Tree
710800_519000_500_4.tiff,185,0,325,37,Tree
710800_519000_500_4.tiff,294,13,358,98,Tree
710800_519000_500_4.tiff,341,0,392,61,Tree
710800_519000_500_4.tiff,442,0,499,88,Tree
710800_519000_500_4.tiff,355,12,448,139,Tree
710800_519000_500_4.tiff,296,99,379,205,Tree
710800_519000_500_4.tiff,205,119,263,204,Tree
710800_519000_500_4.tiff,257,116,300,185,Tree
710800_519000_500_4.tiff,497,215,499,232,Tree
710800_519000_500_4.tiff,0,134,48,212,Tree
710800_519000_500_4.tiff,94,435,282,499,Tree
710800_519000_500_4.tiff,0,232,55,389,Tree
710800_519000_500_4.tiff,26,272,135,401,Tree
710800_519000_500_4.tiff,55,185,180,295,Tree
710800_519000_500_4.tiff,167,191,243,279,Tree
710800_519000_500_4.tiff,349,264,459,404,Tree
710800_519000_500_4.tiff,258,345,441,494,Tree
710800_519000_500_4.tiff,190,231,316,425,Tree
710800_519000_500_4.tiff,104,319,199,432,Tree
710800_519000_500_4.tiff,412,420,499,499,Tree
710800_519000_500_4.tiff,452,315,499,414,Tree
