image_path,xmin,ymin,xmax,ymax,label
711000_519100_500_1.tiff,53,441,107,489,Tree
711000_519100_500_1.tiff,102,400,166,460,Tree
711000_519100_500_1.tiff,0,395,72,466,Tree
711000_519100_500_1.tiff,78,489,119,499,Tree
711000_519100_500_1.tiff,140,490,200,499,Tree
711000_519100_500_1.tiff,300,345,411,421,Tree
711000_519100_500_1.tiff,103,345,169,386,Tree
711000_519100_500_1.tiff,24,289,102,387,Tree
711000_519100_500_1.tiff,95,270,150,322,Tree
711000_519100_500_1.tiff,45,227,101,295,Tree
711000_519100_500_1.tiff,92,200,163,269,Tree
711000_519100_500_1.tiff,21,170,80,227,Tree
711000_519100_500_1.tiff,0,161,25,221,Tree
711000_519100_500_1.tiff,0,218,48,297,Tree
711000_519100_500_1.tiff,0,115,17,152,Tree
711000_519100_500_1.tiff,0,64,32,105,Tree
711000_519100_500_1.tiff,164,197,283,303,Tree
711000_519100_500_1.tiff,216,80,342,184,Tree
711000_519100_500_1.tiff,147,94,221,226,Tree
711000_519100_500_1.tiff,93,77,154,215,Tree
711000_519100_500_1.tiff,264,287,358,353,Tree
711000_519100_500_1.tiff,45,29,141,82,Tree
711000_519100_500_1.tiff,47,0,107,36,Tree
711000_519100_500_1.tiff,9,8,46,52,Tree
711000_519100_500_1.tiff,27,0,46,4,Tree
711000_519100_500_1.tiff,160,0,285,56,Tree
711000_519100_500_1.tiff,275,0,390,36,Tree
711000_519100_500_1.tiff,341,49,413,127,Tree
711000_519100_500_1.tiff,428,51,499,144,Tree
711000_519100_500_1.tiff,439,0,491,41,Tree
711000_519100_500_1.tiff,307,211,427,351,Tree
711000_519100_500_1.tiff,373,171,471,256,Tree
711000_519100_500_1.tiff,429,234,499,348,Tree
711000_519100_500_1.tiff,422,365,469,437,Tree
711000_519100_500_1.tiff,463,366,499,450,Tree
711000_519100_500_1.tiff,169,349,282,437,Tree
711000_519100_500_1.tiff,195,431,339,499,Tree
711000_519100_500_1.tiff,336,418,460,499,Tree
711000_519100_500_1.tiff,479,485,499,499,Tree
711000_519100_500_1.tiff,25,99,95,159,Tree
711000_519100_500_1.tiff,25,99,95,159,Tree
711000_519100_500_1.tiff,25,99,95,159,Tree
