image_path,xmin,ymin,xmax,ymax,label
711400_519200_500_3.tiff,19,0,86,32,Tree
711400_519200_500_3.tiff,86,0,174,42,Tree
711400_519200_500_3.tiff,173,0,271,30,Tree
711400_519200_500_3.tiff,362,0,417,45,Tree
711400_519200_500_3.tiff,266,0,376,56,Tree
711400_519200_500_3.tiff,241,31,402,143,Tree
711400_519200_500_3.tiff,0,38,86,132,Tree
711400_519200_500_3.tiff,0,95,72,185,Tree
711400_519200_500_3.tiff,3,179,62,239,Tree
711400_519200_500_3.tiff,0,217,63,311,Tree
711400_519200_500_3.tiff,5,299,108,367,Tree
711400_519200_500_3.tiff,3,355,175,499,Tree
711400_519200_500_3.tiff,153,315,227,407,Tree
711400_519200_500_3.tiff,54,167,146,276,Tree
711400_519200_500_3.tiff,73,121,158,186,Tree
711400_519200_500_3.tiff,83,20,244,133,Tree
711400_519200_500_3.tiff,158,98,347,227,Tree
711400_519200_500_3.tiff,142,232,207,321,Tree
711400_519200_500_3.tiff,61,176,185,308,Tree
711400_519200_500_3.tiff,199,235,263,290,Tree
711400_519200_500_3.tiff,210,278,290,367,Tree
711400_519200_500_3.tiff,263,263,357,336,Tree
711400_519200_500_3.tiff,264,182,363,274,Tree
711400_519200_500_3.tiff,355,161,475,273,Tree
711400_519200_500_3.tiff,418,130,499,235,Tree
711400_519200_500_3.tiff,410,237,499,365,Tree
711400_519200_500_3.tiff,432,364,499,444,Tree
711400_519200_500_3.tiff,304,345,403,445,Tree
711400_519200_500_3.tiff,205,333,327,442,Tree
711400_519200_500_3.tiff,239,427,377,499,Tree
711400_519200_500_3.tiff,129,451,198,499,Tree
711400_519200_500_3.tiff,199,461,245,499,Tree
711400_519200_500_3.tiff,179,498,197,499,Tree
711400_519200_500_3.tiff,95,487,147,499,Tree
711400_519200_500_3.tiff,0,420,13,452,Tree
711400_519200_500_3.tiff,461,441,499,499,Tree
711400_519200_500_3.tiff,491,399,499,422,Tree
711400_519200_500_3.tiff,498,372,499,381,Tree
