image_path,xmin,ymin,xmax,ymax,label
711400_519200_500_2.tiff,3,0,67,36,Tree
711400_519200_500_2.tiff,111,0,154,13,Tree
711400_519200_500_2.tiff,124,0,222,53,Tree
711400_519200_500_2.tiff,29,21,135,132,Tree
711400_519200_500_2.tiff,0,28,31,85,Tree
711400_519200_500_2.tiff,12,86,39,118,Tree
711400_519200_500_2.tiff,0,94,72,196,Tree
711400_519200_500_2.tiff,110,46,227,149,Tree
711400_519200_500_2.tiff,83,144,208,252,Tree
711400_519200_500_2.tiff,0,179,94,258,Tree
711400_519200_500_2.tiff,63,232,126,274,Tree
711400_519200_500_2.tiff,3,249,85,329,Tree
711400_519200_500_2.tiff,0,325,90,425,Tree
711400_519200_500_2.tiff,64,274,152,380,Tree
711400_519200_500_2.tiff,78,327,196,429,Tree
711400_519200_500_2.tiff,144,220,248,312,Tree
711400_519200_500_2.tiff,204,136,316,294,Tree
711400_519200_500_2.tiff,213,0,374,108,Tree
711400_519200_500_2.tiff,411,0,499,23,Tree
711400_519200_500_2.tiff,402,23,499,124,Tree
711400_519200_500_2.tiff,306,73,424,198,Tree
711400_519200_500_2.tiff,406,108,499,260,Tree
711400_519200_500_2.tiff,304,195,437,346,Tree
711400_519200_500_2.tiff,426,248,499,316,Tree
711400_519200_500_2.tiff,411,316,499,383,Tree
711400_519200_500_2.tiff,403,402,499,490,Tree
711400_519200_500_2.tiff,0,371,39,474,Tree
711400_519200_500_2.tiff,13,445,86,499,Tree
711400_519200_500_2.tiff,82,438,196,499,Tree
711400_519200_500_2.tiff,178,367,248,449,Tree
711400_519200_500_2.tiff,173,396,292,499,Tree
711400_519200_500_2.tiff,288,362,388,452,Tree
711400_519200_500_2.tiff,349,348,427,423,Tree
711400_519200_500_2.tiff,323,416,410,496,Tree
711400_519200_500_2.tiff,363,475,417,499,Tree
711400_519200_500_2.tiff,267,457,359,499,Tree
