image_path,xmin,ymin,xmax,ymax,label
711400_519100_500_1.tiff,132,0,269,67,Tree
711400_519100_500_1.tiff,205,150,286,211,Tree
711400_519100_500_1.tiff,251,195,326,260,Tree
711400_519100_500_1.tiff,279,0,460,214,Tree
711400_519100_500_1.tiff,367,223,402,249,Tree
711400_519100_500_1.tiff,347,299,376,325,Tree
711400_519100_500_1.tiff,401,195,429,223,Tree
711400_519100_500_1.tiff,427,166,463,206,Tree
711400_519100_500_1.tiff,419,217,456,260,Tree
711400_519100_500_1.tiff,460,349,499,405,Tree
711400_519100_500_1.tiff,458,427,499,476,Tree
711400_519100_500_1.tiff,469,498,478,499,Tree
711400_519100_500_1.tiff,422,305,485,350,Tree
711400_519100_500_1.tiff,386,331,430,371,Tree
711400_519100_500_1.tiff,490,124,499,160,Tree
711400_519100_500_1.tiff,497,194,499,217,Tree
711400_519100_500_1.tiff,464,0,499,32,Tree
711400_519100_500_1.tiff,475,24,499,78,Tree
