image_path,xmin,ymin,xmax,ymax,label
712200_518600_500_3.tiff,481,44,499,112,Tree
712200_518600_500_3.tiff,403,200,499,408,Tree
712200_518600_500_3.tiff,495,279,499,313,Tree
712200_518600_500_3.tiff,222,418,443,499,Tree
712200_518600_500_3.tiff,480,444,499,499,Tree
