image_path,xmin,ymin,xmax,ymax,label
713800_516200_500_2.tiff,0,0,120,195,Tree
713800_516200_500_2.tiff,20,0,178,76,Tree
713800_516200_500_2.tiff,335,0,499,43,Tree
713800_516200_500_2.tiff,168,0,338,126,Tree
713800_516200_500_2.tiff,137,63,259,217,Tree
713800_516200_500_2.tiff,356,38,475,140,Tree
713800_516200_500_2.tiff,258,72,425,287,Tree
713800_516200_500_2.tiff,179,210,340,346,Tree
713800_516200_500_2.tiff,108,165,171,223,Tree
713800_516200_500_2.tiff,12,190,184,357,Tree
713800_516200_500_2.tiff,0,326,114,455,Tree
713800_516200_500_2.tiff,0,271,46,332,Tree
713800_516200_500_2.tiff,202,369,380,499,Tree
713800_516200_500_2.tiff,110,304,253,499,Tree
713800_516200_500_2.tiff,344,465,454,499,Tree
713800_516200_500_2.tiff,340,251,499,382,Tree
713800_516200_500_2.tiff,342,371,407,436,Tree
713800_516200_500_2.tiff,404,381,499,480,Tree
713800_516200_500_2.tiff,498,353,499,400,Tree
713800_516200_500_2.tiff,420,17,499,275,Tree
713800_516200_500_2.tiff,461,448,499,499,Tree
713800_516200_500_2.tiff,20,449,114,499,Tree
