image_path,xmin,ymin,xmax,ymax,label
713800_515700_500_4.tiff,0,156,57,328,Tree
713800_515700_500_4.tiff,289,179,454,354,Tree
713800_515700_500_4.tiff,0,0,51,94,Tree
713800_515700_500_4.tiff,30,0,265,199,Tree
713800_515700_500_4.tiff,267,0,479,190,Tree
713800_515700_500_4.tiff,448,0,499,59,Tree
713800_515700_500_4.tiff,420,65,499,267,Tree
713800_515700_500_4.tiff,453,332,499,451,Tree
713800_515700_500_4.tiff,438,261,499,341,Tree
713800_515700_500_4.tiff,0,315,134,499,Tree
713800_515700_500_4.tiff,111,242,350,424,Tree
713800_515700_500_4.tiff,357,372,499,499,Tree
713800_515700_500_4.tiff,343,484,430,499,Tree
713800_515700_500_4.tiff,213,421,358,499,Tree
