image_path,xmin,ymin,xmax,ymax,label
713800_515700_500_2.tiff,0,0,5,4,Tree
713800_515700_500_2.tiff,10,12,152,127,Tree
713800_515700_500_2.tiff,151,0,438,175,Tree
713800_515700_500_2.tiff,375,0,499,116,Tree
713800_515700_500_2.tiff,69,82,257,262,Tree
713800_515700_500_2.tiff,0,115,68,266,Tree
713800_515700_500_2.tiff,0,220,124,375,Tree
713800_515700_500_2.tiff,93,260,248,394,Tree
713800_515700_500_2.tiff,193,212,311,313,Tree
713800_515700_500_2.tiff,423,116,499,239,Tree
713800_515700_500_2.tiff,266,270,352,368,Tree
713800_515700_500_2.tiff,351,238,499,406,Tree
713800_515700_500_2.tiff,485,224,499,275,Tree
713800_515700_500_2.tiff,0,369,170,499,Tree
713800_515700_500_2.tiff,96,481,176,499,Tree
713800_515700_500_2.tiff,163,463,299,499,Tree
713800_515700_500_2.tiff,281,368,443,499,Tree
713800_515700_500_2.tiff,405,420,499,499,Tree
