image_path,xmin,ymin,xmax,ymax,label
713900_515900_500_1.tiff,0,0,105,40,Tree
713900_515900_500_1.tiff,0,57,95,188,Tree
713900_515900_500_1.tiff,0,188,168,375,Tree
713900_515900_500_1.tiff,0,314,53,490,Tree
713900_515900_500_1.tiff,42,318,199,499,Tree
713900_515900_500_1.tiff,0,470,97,499,Tree
713900_515900_500_1.tiff,469,433,499,499,Tree
713900_515900_500_1.tiff,342,471,479,499,Tree
713900_515900_500_1.tiff,155,399,312,499,Tree
713900_515900_500_1.tiff,165,251,242,349,Tree
713900_515900_500_1.tiff,229,191,499,471,Tree
713900_515900_500_1.tiff,82,39,413,223,Tree
713900_515900_500_1.tiff,241,0,425,96,Tree
713900_515900_500_1.tiff,98,0,238,42,Tree
713900_515900_500_1.tiff,394,0,499,90,Tree
713900_515900_500_1.tiff,409,70,499,160,Tree
713900_515900_500_1.tiff,487,160,499,240,Tree
