image_path,xmin,ymin,xmax,ymax,label
714000_516000_500_3.tiff,0,390,76,499,Tree
714000_516000_500_3.tiff,20,268,351,455,Tree
714000_516000_500_3.tiff,167,442,428,499,Tree
714000_516000_500_3.tiff,0,0,112,156,Tree
714000_516000_500_3.tiff,13,79,197,269,Tree
714000_516000_500_3.tiff,0,182,74,392,Tree
714000_516000_500_3.tiff,130,0,279,106,Tree
714000_516000_500_3.tiff,370,0,499,138,Tree
714000_516000_500_3.tiff,185,30,404,277,Tree
714000_516000_500_3.tiff,383,118,499,295,Tree
714000_516000_500_3.tiff,287,244,479,419,Tree
714000_516000_500_3.tiff,465,315,499,461,Tree
714000_516000_500_3.tiff,429,456,499,499,Tree
