image_path,xmin,ymin,xmax,ymax,label
714000_516500_500_3.tiff,94,0,148,19,Tree
714000_516500_500_3.tiff,0,0,117,84,Tree
714000_516500_500_3.tiff,192,0,343,85,Tree
714000_516500_500_3.tiff,177,50,251,129,Tree
714000_516500_500_3.tiff,257,83,322,162,Tree
714000_516500_500_3.tiff,86,98,191,203,Tree
714000_516500_500_3.tiff,172,118,329,212,Tree
714000_516500_500_3.tiff,162,210,285,320,Tree
714000_516500_500_3.tiff,0,150,75,237,Tree
714000_516500_500_3.tiff,60,204,127,271,Tree
714000_516500_500_3.tiff,0,222,46,296,Tree
714000_516500_500_3.tiff,170,294,333,438,Tree
714000_516500_500_3.tiff,256,364,386,484,Tree
714000_516500_500_3.tiff,305,421,457,499,Tree
714000_516500_500_3.tiff,396,299,483,382,Tree
714000_516500_500_3.tiff,460,425,499,499,Tree
714000_516500_500_3.tiff,468,161,499,265,Tree
714000_516500_500_3.tiff,370,173,476,247,Tree
714000_516500_500_3.tiff,313,70,433,196,Tree
714000_516500_500_3.tiff,342,0,435,89,Tree
714000_516500_500_3.tiff,467,0,474,1,Tree
714000_516500_500_3.tiff,437,0,499,112,Tree
714000_516500_500_3.tiff,416,74,450,116,Tree
714000_516500_500_3.tiff,457,101,499,173,Tree
