image_path,xmin,ymin,xmax,ymax,label
714100_515900_500_1.tiff,278,0,495,52,Tree
714100_515900_500_1.tiff,294,22,416,193,Tree
714100_515900_500_1.tiff,157,0,284,88,Tree
714100_515900_500_1.tiff,140,465,272,499,Tree
714100_515900_500_1.tiff,411,13,499,96,Tree
714100_515900_500_1.tiff,454,158,499,290,Tree
714100_515900_500_1.tiff,474,82,499,162,Tree
714100_515900_500_1.tiff,232,231,396,411,Tree
714100_515900_500_1.tiff,347,166,454,272,Tree
714100_515900_500_1.tiff,246,128,347,257,Tree
714100_515900_500_1.tiff,17,150,185,316,Tree
714100_515900_500_1.tiff,0,28,91,166,Tree
714100_515900_500_1.tiff,5,0,158,82,Tree
714100_515900_500_1.tiff,60,60,184,156,Tree
714100_515900_500_1.tiff,171,47,298,156,Tree
714100_515900_500_1.tiff,0,381,131,481,Tree
714100_515900_500_1.tiff,8,294,210,470,Tree
714100_515900_500_1.tiff,385,255,499,445,Tree
714100_515900_500_1.tiff,313,430,499,499,Tree
714100_515900_500_1.tiff,488,440,499,499,Tree
