image_path,xmin,ymin,xmax,ymax,label
714200_517100_500_1.tiff,283,0,310,9,Tree
714200_517100_500_1.tiff,417,0,421,1,Tree
714200_517100_500_1.tiff,89,4,182,99,Tree
714200_517100_500_1.tiff,174,0,266,75,Tree
714200_517100_500_1.tiff,61,99,138,150,Tree
714200_517100_500_1.tiff,0,105,71,220,Tree
714200_517100_500_1.tiff,404,0,499,71,Tree
714200_517100_500_1.tiff,493,56,499,79,Tree
714200_517100_500_1.tiff,322,0,389,56,Tree
714200_517100_500_1.tiff,373,48,445,133,Tree
714200_517100_500_1.tiff,250,87,290,145,Tree
714200_517100_500_1.tiff,251,146,379,220,Tree
714200_517100_500_1.tiff,138,143,202,243,Tree
714200_517100_500_1.tiff,53,265,158,360,Tree
714200_517100_500_1.tiff,0,281,56,386,Tree
714200_517100_500_1.tiff,169,228,253,307,Tree
714200_517100_500_1.tiff,264,246,342,355,Tree
714200_517100_500_1.tiff,345,188,453,267,Tree
714200_517100_500_1.tiff,349,295,418,371,Tree
714200_517100_500_1.tiff,406,279,481,357,Tree
714200_517100_500_1.tiff,428,339,499,421,Tree
714200_517100_500_1.tiff,443,125,499,218,Tree
714200_517100_500_1.tiff,486,247,499,299,Tree
714200_517100_500_1.tiff,146,329,272,430,Tree
714200_517100_500_1.tiff,216,341,275,370,Tree
714200_517100_500_1.tiff,276,358,303,393,Tree
714200_517100_500_1.tiff,312,356,343,385,Tree
714200_517100_500_1.tiff,51,376,142,448,Tree
714200_517100_500_1.tiff,165,458,213,484,Tree
714200_517100_500_1.tiff,86,479,114,499,Tree
714200_517100_500_1.tiff,112,490,138,499,Tree
714200_517100_500_1.tiff,139,483,158,499,Tree
714200_517100_500_1.tiff,114,445,132,475,Tree
714200_517100_500_1.tiff,39,442,80,488,Tree
714200_517100_500_1.tiff,12,487,65,499,Tree
714200_517100_500_1.tiff,24,382,60,420,Tree
714200_517100_500_1.tiff,0,449,27,484,Tree
714200_517100_500_1.tiff,218,424,325,481,Tree
714200_517100_500_1.tiff,400,495,436,499,Tree
714200_517100_500_1.tiff,383,447,430,491,Tree
714200_517100_500_1.tiff,226,488,273,499,Tree
714200_517100_500_1.tiff,470,407,499,485,Tree
714200_517100_500_1.tiff,453,488,499,499,Tree
