image_path,xmin,ymin,xmax,ymax,label
714200_517100_500_2.tiff,176,18,208,55,Tree
714200_517100_500_2.tiff,143,30,161,69,Tree
714200_517100_500_2.tiff,170,50,190,65,Tree
714200_517100_500_2.tiff,97,19,141,55,Tree
714200_517100_500_2.tiff,90,0,111,13,Tree
714200_517100_500_2.tiff,115,0,137,11,Tree
714200_517100_500_2.tiff,145,0,158,7,Tree
714200_517100_500_2.tiff,140,9,165,29,Tree
714200_517100_500_2.tiff,9,0,64,44,Tree
714200_517100_500_2.tiff,48,17,97,55,Tree
714200_517100_500_2.tiff,10,52,99,91,Tree
714200_517100_500_2.tiff,47,88,127,132,Tree
714200_517100_500_2.tiff,375,0,457,66,Tree
714200_517100_500_2.tiff,223,0,353,106,Tree
714200_517100_500_2.tiff,191,57,306,182,Tree
714200_517100_500_2.tiff,116,128,147,156,Tree
714200_517100_500_2.tiff,129,153,166,187,Tree
714200_517100_500_2.tiff,167,164,199,192,Tree
714200_517100_500_2.tiff,91,143,120,183,Tree
714200_517100_500_2.tiff,113,179,146,207,Tree
714200_517100_500_2.tiff,452,142,499,292,Tree
714200_517100_500_2.tiff,427,72,478,121,Tree
714200_517100_500_2.tiff,475,62,499,112,Tree
714200_517100_500_2.tiff,461,0,499,46,Tree
714200_517100_500_2.tiff,398,113,428,147,Tree
714200_517100_500_2.tiff,354,145,406,183,Tree
714200_517100_500_2.tiff,327,101,394,159,Tree
714200_517100_500_2.tiff,314,175,366,224,Tree
714200_517100_500_2.tiff,287,141,344,198,Tree
714200_517100_500_2.tiff,179,203,237,261,Tree
714200_517100_500_2.tiff,103,250,179,314,Tree
714200_517100_500_2.tiff,14,217,108,323,Tree
714200_517100_500_2.tiff,0,289,29,349,Tree
714200_517100_500_2.tiff,0,338,98,456,Tree
714200_517100_500_2.tiff,94,337,161,426,Tree
714200_517100_500_2.tiff,84,324,108,351,Tree
714200_517100_500_2.tiff,198,261,301,362,Tree
714200_517100_500_2.tiff,149,327,240,424,Tree
714200_517100_500_2.tiff,217,405,291,450,Tree
714200_517100_500_2.tiff,274,335,375,420,Tree
714200_517100_500_2.tiff,289,208,449,335,Tree
714200_517100_500_2.tiff,253,197,308,237,Tree
714200_517100_500_2.tiff,164,448,209,499,Tree
714200_517100_500_2.tiff,232,465,283,499,Tree
714200_517100_500_2.tiff,102,428,152,492,Tree
714200_517100_500_2.tiff,52,465,106,499,Tree
714200_517100_500_2.tiff,23,464,60,499,Tree
714200_517100_500_2.tiff,280,451,373,499,Tree
714200_517100_500_2.tiff,359,356,474,475,Tree
714200_517100_500_2.tiff,437,351,467,371,Tree
714200_517100_500_2.tiff,427,358,445,376,Tree
714200_517100_500_2.tiff,477,390,499,418,Tree
714200_517100_500_2.tiff,460,373,475,391,Tree
714200_517100_500_2.tiff,479,449,499,482,Tree
