image_path,xmin,ymin,xmax,ymax,label
714300_516900_500_2.tiff,0,75,16,135,Tree
714300_516900_500_2.tiff,0,161,34,261,Tree
714300_516900_500_2.tiff,0,162,1,166,Tree
714300_516900_500_2.tiff,0,304,32,405,Tree
714300_516900_500_2.tiff,0,408,40,482,Tree
714300_516900_500_2.tiff,0,476,59,499,Tree
714300_516900_500_2.tiff,36,255,144,377,Tree
714300_516900_500_2.tiff,11,178,148,287,Tree
714300_516900_500_2.tiff,20,119,110,194,Tree
714300_516900_500_2.tiff,0,12,88,129,Tree
714300_516900_500_2.tiff,80,0,149,50,Tree
714300_516900_500_2.tiff,158,0,190,15,Tree
714300_516900_500_2.tiff,68,42,141,120,Tree
714300_516900_500_2.tiff,104,46,241,163,Tree
714300_516900_500_2.tiff,189,0,287,123,Tree
714300_516900_500_2.tiff,0,0,76,26,Tree
714300_516900_500_2.tiff,490,0,499,4,Tree
714300_516900_500_2.tiff,307,0,420,102,Tree
714300_516900_500_2.tiff,403,0,478,46,Tree
714300_516900_500_2.tiff,480,0,499,76,Tree
714300_516900_500_2.tiff,396,22,499,129,Tree
714300_516900_500_2.tiff,273,27,345,89,Tree
714300_516900_500_2.tiff,244,80,356,166,Tree
714300_516900_500_2.tiff,333,100,414,181,Tree
714300_516900_500_2.tiff,385,140,461,212,Tree
714300_516900_500_2.tiff,460,150,499,210,Tree
714300_516900_500_2.tiff,493,123,499,160,Tree
714300_516900_500_2.tiff,157,148,299,273,Tree
714300_516900_500_2.tiff,243,254,321,316,Tree
714300_516900_500_2.tiff,299,159,386,283,Tree
714300_516900_500_2.tiff,345,213,478,364,Tree
714300_516900_500_2.tiff,442,225,499,332,Tree
714300_516900_500_2.tiff,460,326,499,399,Tree
714300_516900_500_2.tiff,406,358,499,499,Tree
714300_516900_500_2.tiff,273,314,425,452,Tree
714300_516900_500_2.tiff,211,379,322,499,Tree
714300_516900_500_2.tiff,146,396,220,499,Tree
714300_516900_500_2.tiff,124,352,219,420,Tree
714300_516900_500_2.tiff,116,410,158,468,Tree
714300_516900_500_2.tiff,79,453,164,499,Tree
714300_516900_500_2.tiff,264,469,372,499,Tree
714300_516900_500_2.tiff,483,467,499,499,Tree
