image_path,xmin,ymin,xmax,ymax,label
714400_516400_500_4.tiff,0,0,91,207,Tree
714400_516400_500_4.tiff,0,208,82,310,Tree
714400_516400_500_4.tiff,65,242,146,327,Tree
714400_516400_500_4.tiff,128,228,258,371,Tree
714400_516400_500_4.tiff,123,314,216,473,Tree
714400_516400_500_4.tiff,0,305,136,499,Tree
714400_516400_500_4.tiff,0,491,28,499,Tree
714400_516400_500_4.tiff,81,464,164,499,Tree
714400_516400_500_4.tiff,184,498,194,499,Tree
714400_516400_500_4.tiff,242,404,429,499,Tree
714400_516400_500_4.tiff,54,0,169,62,Tree
714400_516400_500_4.tiff,147,0,295,115,Tree
714400_516400_500_4.tiff,81,36,152,145,Tree
714400_516400_500_4.tiff,133,80,222,178,Tree
714400_516400_500_4.tiff,276,17,423,168,Tree
714400_516400_500_4.tiff,200,122,373,266,Tree
714400_516400_500_4.tiff,252,190,403,323,Tree
714400_516400_500_4.tiff,390,210,476,339,Tree
714400_516400_500_4.tiff,421,287,499,381,Tree
714400_516400_500_4.tiff,451,203,499,319,Tree
714400_516400_500_4.tiff,321,314,451,425,Tree
714400_516400_500_4.tiff,267,307,350,379,Tree
714400_516400_500_4.tiff,446,373,499,428,Tree
714400_516400_500_4.tiff,401,414,499,499,Tree
714400_516400_500_4.tiff,455,10,499,128,Tree
714400_516400_500_4.tiff,365,0,499,65,Tree
