image_path,xmin,ymin,xmax,ymax,label
714600_515900_500_2.tiff,177,0,326,29,Tree
714600_515900_500_2.tiff,326,0,383,23,Tree
714600_515900_500_2.tiff,302,5,384,86,Tree
714600_515900_500_2.tiff,368,0,426,55,Tree
714600_515900_500_2.tiff,414,0,473,17,Tree
714600_515900_500_2.tiff,14,0,33,3,Tree
714600_515900_500_2.tiff,40,0,79,15,Tree
714600_515900_500_2.tiff,67,0,130,53,Tree
714600_515900_500_2.tiff,0,0,63,76,Tree
714600_515900_500_2.tiff,40,50,91,120,Tree
714600_515900_500_2.tiff,0,78,81,164,Tree
714600_515900_500_2.tiff,0,138,36,199,Tree
714600_515900_500_2.tiff,37,121,143,234,Tree
714600_515900_500_2.tiff,14,183,77,259,Tree
714600_515900_500_2.tiff,136,129,188,184,Tree
714600_515900_500_2.tiff,164,91,217,143,Tree
714600_515900_500_2.tiff,95,6,187,103,Tree
714600_515900_500_2.tiff,177,21,282,121,Tree
714600_515900_500_2.tiff,259,61,333,153,Tree
714600_515900_500_2.tiff,350,80,398,113,Tree
714600_515900_500_2.tiff,329,98,404,154,Tree
714600_515900_500_2.tiff,400,74,481,147,Tree
714600_515900_500_2.tiff,191,122,257,169,Tree
714600_515900_500_2.tiff,211,144,283,210,Tree
714600_515900_500_2.tiff,275,136,342,187,Tree
714600_515900_500_2.tiff,335,150,387,189,Tree
714600_515900_500_2.tiff,368,166,470,243,Tree
714600_515900_500_2.tiff,281,178,379,237,Tree
714600_515900_500_2.tiff,216,183,284,264,Tree
714600_515900_500_2.tiff,2,251,75,321,Tree
714600_515900_500_2.tiff,63,252,88,280,Tree
714600_515900_500_2.tiff,72,262,109,297,Tree
714600_515900_500_2.tiff,92,195,147,246,Tree
714600_515900_500_2.tiff,88,244,116,270,Tree
714600_515900_500_2.tiff,125,236,188,300,Tree
714600_515900_500_2.tiff,133,178,176,221,Tree
714600_515900_500_2.tiff,157,183,227,262,Tree
714600_515900_500_2.tiff,165,253,236,343,Tree
714600_515900_500_2.tiff,145,299,172,323,Tree
714600_515900_500_2.tiff,111,291,149,343,Tree
714600_515900_500_2.tiff,51,289,126,356,Tree
714600_515900_500_2.tiff,0,297,36,356,Tree
714600_515900_500_2.tiff,8,327,54,379,Tree
714600_515900_500_2.tiff,0,351,18,392,Tree
714600_515900_500_2.tiff,35,348,108,394,Tree
714600_515900_500_2.tiff,0,406,22,460,Tree
714600_515900_500_2.tiff,9,386,82,437,Tree
714600_515900_500_2.tiff,91,362,132,409,Tree
714600_515900_500_2.tiff,144,338,205,385,Tree
714600_515900_500_2.tiff,203,295,256,343,Tree
714600_515900_500_2.tiff,199,326,239,351,Tree
714600_515900_500_2.tiff,205,347,263,376,Tree
714600_515900_500_2.tiff,234,258,301,324,Tree
714600_515900_500_2.tiff,269,222,311,256,Tree
714600_515900_500_2.tiff,290,251,319,288,Tree
714600_515900_500_2.tiff,316,227,373,290,Tree
714600_515900_500_2.tiff,350,270,390,302,Tree
714600_515900_500_2.tiff,373,252,411,283,Tree
714600_515900_500_2.tiff,390,271,464,325,Tree
714600_515900_500_2.tiff,446,220,499,296,Tree
714600_515900_500_2.tiff,296,289,383,354,Tree
714600_515900_500_2.tiff,258,313,303,364,Tree
714600_515900_500_2.tiff,122,370,169,417,Tree
714600_515900_500_2.tiff,170,364,220,414,Tree
714600_515900_500_2.tiff,218,379,261,411,Tree
714600_515900_500_2.tiff,335,356,396,391,Tree
714600_515900_500_2.tiff,489,0,499,13,Tree
714600_515900_500_2.tiff,471,0,494,13,Tree
714600_515900_500_2.tiff,421,13,483,79,Tree
714600_515900_500_2.tiff,374,45,428,104,Tree
714600_515900_500_2.tiff,469,8,499,118,Tree
714600_515900_500_2.tiff,440,119,499,194,Tree
714600_515900_500_2.tiff,470,174,499,212,Tree
714600_515900_500_2.tiff,497,267,499,282,Tree
