image_path,xmin,ymin,xmax,ymax,label
714600_516300_500_3.tiff,121,0,191,28,Tree
714600_516300_500_3.tiff,0,0,76,79,Tree
714600_516300_500_3.tiff,53,0,133,74,Tree
714600_516300_500_3.tiff,0,37,53,127,Tree
714600_516300_500_3.tiff,0,88,181,218,Tree
714600_516300_500_3.tiff,46,199,154,313,Tree
714600_516300_500_3.tiff,0,225,79,325,Tree
714600_516300_500_3.tiff,0,313,27,373,Tree
714600_516300_500_3.tiff,0,372,20,418,Tree
714600_516300_500_3.tiff,0,323,116,408,Tree
714600_516300_500_3.tiff,0,406,117,499,Tree
714600_516300_500_3.tiff,0,464,63,499,Tree
714600_516300_500_3.tiff,109,404,244,499,Tree
714600_516300_500_3.tiff,84,294,209,408,Tree
714600_516300_500_3.tiff,144,193,207,249,Tree
714600_516300_500_3.tiff,146,239,201,306,Tree
714600_516300_500_3.tiff,154,326,260,426,Tree
714600_516300_500_3.tiff,228,372,358,499,Tree
714600_516300_500_3.tiff,227,238,423,425,Tree
714600_516300_500_3.tiff,381,318,479,399,Tree
714600_516300_500_3.tiff,345,378,493,499,Tree
714600_516300_500_3.tiff,468,370,499,452,Tree
714600_516300_500_3.tiff,464,218,499,366,Tree
714600_516300_500_3.tiff,376,181,498,319,Tree
714600_516300_500_3.tiff,291,119,426,236,Tree
714600_516300_500_3.tiff,177,67,342,215,Tree
714600_516300_500_3.tiff,135,79,217,180,Tree
714600_516300_500_3.tiff,116,33,228,112,Tree
714600_516300_500_3.tiff,197,0,331,84,Tree
714600_516300_500_3.tiff,333,0,420,26,Tree
714600_516300_500_3.tiff,302,8,404,126,Tree
714600_516300_500_3.tiff,382,0,499,210,Tree
