image_path,xmin,ymin,xmax,ymax,label
714700_516900_500_2.tiff,295,471,392,499,Tree
714700_516900_500_2.tiff,285,371,357,470,Tree
714700_516900_500_2.tiff,188,351,314,484,Tree
714700_516900_500_2.tiff,143,302,236,396,Tree
714700_516900_500_2.tiff,190,492,220,499,Tree
714700_516900_500_2.tiff,114,475,193,499,Tree
714700_516900_500_2.tiff,108,404,193,489,Tree
714700_516900_500_2.tiff,75,409,129,462,Tree
714700_516900_500_2.tiff,67,341,158,419,Tree
714700_516900_500_2.tiff,7,445,122,499,Tree
714700_516900_500_2.tiff,3,415,62,462,Tree
714700_516900_500_2.tiff,11,340,77,423,Tree
714700_516900_500_2.tiff,0,350,17,397,Tree
714700_516900_500_2.tiff,0,253,40,334,Tree
714700_516900_500_2.tiff,20,188,104,285,Tree
714700_516900_500_2.tiff,88,203,133,248,Tree
714700_516900_500_2.tiff,67,256,142,322,Tree
714700_516900_500_2.tiff,83,313,146,357,Tree
714700_516900_500_2.tiff,140,204,247,308,Tree
714700_516900_500_2.tiff,227,257,310,342,Tree
714700_516900_500_2.tiff,302,284,395,367,Tree
714700_516900_500_2.tiff,268,136,404,296,Tree
714700_516900_500_2.tiff,379,247,447,325,Tree
714700_516900_500_2.tiff,440,238,499,331,Tree
714700_516900_500_2.tiff,480,298,499,366,Tree
714700_516900_500_2.tiff,411,324,490,411,Tree
714700_516900_500_2.tiff,349,327,423,417,Tree
714700_516900_500_2.tiff,379,398,499,499,Tree
714700_516900_500_2.tiff,451,0,499,4,Tree
714700_516900_500_2.tiff,307,0,368,24,Tree
714700_516900_500_2.tiff,378,0,456,76,Tree
714700_516900_500_2.tiff,487,2,499,54,Tree
714700_516900_500_2.tiff,494,74,499,116,Tree
714700_516900_500_2.tiff,470,129,499,197,Tree
714700_516900_500_2.tiff,395,88,481,144,Tree
714700_516900_500_2.tiff,419,136,471,178,Tree
714700_516900_500_2.tiff,400,173,479,218,Tree
714700_516900_500_2.tiff,286,25,407,144,Tree
714700_516900_500_2.tiff,178,20,294,163,Tree
714700_516900_500_2.tiff,248,0,306,48,Tree
714700_516900_500_2.tiff,239,0,249,2,Tree
714700_516900_500_2.tiff,121,0,221,94,Tree
714700_516900_500_2.tiff,85,140,174,228,Tree
714700_516900_500_2.tiff,35,150,82,198,Tree
714700_516900_500_2.tiff,0,72,41,193,Tree
714700_516900_500_2.tiff,0,34,41,78,Tree
714700_516900_500_2.tiff,24,67,54,101,Tree
714700_516900_500_2.tiff,37,69,116,166,Tree
714700_516900_500_2.tiff,0,0,39,36,Tree
714700_516900_500_2.tiff,36,0,72,7,Tree
714700_516900_500_2.tiff,26,21,58,60,Tree
714700_516900_500_2.tiff,47,2,104,68,Tree
714700_516900_500_2.tiff,70,34,131,107,Tree
